[
  {
		"x":65,
		"y":45,
		"width":310,
		"height":200,
		"class":"link",
		"data":
			{
				"url": "http://www.lexpresshv.com/"
			}
  },
  {
		"x":65,
		"y":265,
		"width":310,
		"height":200,
		"class":"link",
		"data":
			{
				"url": "http://www.meatymugs.com/"
			}
  },
  {
		"x":420,
		"y":40,
		"width":320,
		"height":440,
		"class":"link",
		"data":
			{
				"url": "http://fishkillfarms.com/"
			}
  },  
  {
		"x":65,
		"y":490,
		"width":660,
		"height":420,
		"class":"link",
		"data":
			{
				"url": "http://www.4orca.org/"
			}
  }
	
      	
]
